Point Cloud File Management Project
- Number of processes ......................................# 1
- Process (CREATE_PCFM,ADD_PCFILE,ADD_ROI,WRITE_PCFS) ......# ADD_PCFILES
  - PoinCloudFileManager path ..............................# "D:/qLidarProjects/acopio_arcillas/qLidar"
  - CRS (libCRS/EPSG/proj4/wkt) ............................# 25830+5782
  - Number of files ........................................# 1
  - File ...................................................# "D:/qLidarProjects/acopio_arcillas/acopio_arcillas_ground.laz"
